<?xml version="1.0"?>
<!-- Created by MetaPost 2.00 on 2020.03.19:1858 -->
<svg version="1.1" xmlns="http://www.w3.org/2000/svg" xmlns:xlink="http://www.w3.org/1999/xlink" width="468.251526" height="797.009277" viewBox="0 0 468.251526 797.009277">
<!-- Original BoundingBox: -0.500000 -239.102783 467.751526 557.906494 -->
  <path d="M0.000000 796.102783L414.445801 796.102783L414.445801 -0.906494L0.000000 -0.906494Z" style="stroke:rgb(100.000000%,0.000000%,0.000000%); stroke-width: 0.000000;stroke-linecap: round;stroke-linejoin: round;stroke-miterlimit: 10.000000;fill: none;"></path>
  <path d="M0.000000 78.794434L0.000000 716.401855" style="stroke:rgb(30.000305%,30.000305%,30.000305%); stroke-width: 0.199997;stroke-linecap: round;stroke-linejoin: round;stroke-miterlimit: 10.000000;fill: none;"></path>
  <path d="M51.805725 78.794434L51.805725 716.401855" style="stroke:rgb(30.000305%,30.000305%,30.000305%); stroke-width: 0.199997;stroke-linecap: round;stroke-linejoin: round;stroke-miterlimit: 10.000000;fill: none;"></path>
  <path d="M103.611450 78.794434L103.611450 716.401855" style="stroke:rgb(30.000305%,30.000305%,30.000305%); stroke-width: 0.199997;stroke-linecap: round;stroke-linejoin: round;stroke-miterlimit: 10.000000;fill: none;"></path>
  <path d="M155.417175 78.794434L155.417175 716.401855" style="stroke:rgb(30.000305%,30.000305%,30.000305%); stroke-width: 0.199997;stroke-linecap: round;stroke-linejoin: round;stroke-miterlimit: 10.000000;fill: none;"></path>
  <path d="M207.222900 78.794434L207.222900 716.401855" style="stroke:rgb(30.000305%,30.000305%,30.000305%); stroke-width: 0.199997;stroke-linecap: round;stroke-linejoin: round;stroke-miterlimit: 10.000000;fill: none;"></path>
  <path d="M259.028625 78.794434L259.028625 716.401855" style="stroke:rgb(30.000305%,30.000305%,30.000305%); stroke-width: 0.199997;stroke-linecap: round;stroke-linejoin: round;stroke-miterlimit: 10.000000;fill: none;"></path>
  <path d="M310.834351 78.794434L310.834351 716.401855" style="stroke:rgb(30.000305%,30.000305%,30.000305%); stroke-width: 0.199997;stroke-linecap: round;stroke-linejoin: round;stroke-miterlimit: 10.000000;fill: none;"></path>
  <path d="M362.640076 78.794434L362.640076 716.401855" style="stroke:rgb(30.000305%,30.000305%,30.000305%); stroke-width: 0.199997;stroke-linecap: round;stroke-linejoin: round;stroke-miterlimit: 10.000000;fill: none;"></path>
  <path d="M414.445801 78.794434L414.445801 716.401855" style="stroke:rgb(30.000305%,30.000305%,30.000305%); stroke-width: 0.199997;stroke-linecap: round;stroke-linejoin: round;stroke-miterlimit: 10.000000;fill: none;"></path>
  <path d="M414.445801 716.401855L0.000000 716.401855" style="stroke:rgb(30.000305%,30.000305%,30.000305%); stroke-width: 0.199997;stroke-linecap: round;stroke-linejoin: round;stroke-miterlimit: 10.000000;fill: none;"></path>
  <path d="M414.445801 676.551392L0.000000 676.551392" style="stroke:rgb(30.000305%,30.000305%,30.000305%); stroke-width: 0.199997;stroke-linecap: round;stroke-linejoin: round;stroke-miterlimit: 10.000000;fill: none;"></path>
  <path d="M414.445801 636.700928L0.000000 636.700928" style="stroke:rgb(30.000305%,30.000305%,30.000305%); stroke-width: 0.199997;stroke-linecap: round;stroke-linejoin: round;stroke-miterlimit: 10.000000;fill: none;"></path>
  <path d="M414.445801 596.850464L0.000000 596.850464" style="stroke:rgb(30.000305%,30.000305%,30.000305%); stroke-width: 0.199997;stroke-linecap: round;stroke-linejoin: round;stroke-miterlimit: 10.000000;fill: none;"></path>
  <path d="M414.445801 557.000000L0.000000 557.000000" style="stroke:rgb(30.000305%,30.000305%,30.000305%); stroke-width: 0.199997;stroke-linecap: round;stroke-linejoin: round;stroke-miterlimit: 10.000000;fill: none;"></path>
  <path d="M414.445801 517.149536L0.000000 517.149536" style="stroke:rgb(30.000305%,30.000305%,30.000305%); stroke-width: 0.199997;stroke-linecap: round;stroke-linejoin: round;stroke-miterlimit: 10.000000;fill: none;"></path>
  <path d="M414.445801 477.299072L0.000000 477.299072" style="stroke:rgb(30.000305%,30.000305%,30.000305%); stroke-width: 0.199997;stroke-linecap: round;stroke-linejoin: round;stroke-miterlimit: 10.000000;fill: none;"></path>
  <path d="M414.445801 437.448608L0.000000 437.448608" style="stroke:rgb(30.000305%,30.000305%,30.000305%); stroke-width: 0.199997;stroke-linecap: round;stroke-linejoin: round;stroke-miterlimit: 10.000000;fill: none;"></path>
  <path d="M414.445801 397.598145L0.000000 397.598145" style="stroke:rgb(30.000305%,30.000305%,30.000305%); stroke-width: 0.199997;stroke-linecap: round;stroke-linejoin: round;stroke-miterlimit: 10.000000;fill: none;"></path>
  <path d="M414.445801 357.747681L0.000000 357.747681" style="stroke:rgb(30.000305%,30.000305%,30.000305%); stroke-width: 0.199997;stroke-linecap: round;stroke-linejoin: round;stroke-miterlimit: 10.000000;fill: none;"></path>
  <path d="M414.445801 317.897217L0.000000 317.897217" style="stroke:rgb(30.000305%,30.000305%,30.000305%); stroke-width: 0.199997;stroke-linecap: round;stroke-linejoin: round;stroke-miterlimit: 10.000000;fill: none;"></path>
  <path d="M414.445801 278.046753L0.000000 278.046753" style="stroke:rgb(30.000305%,30.000305%,30.000305%); stroke-width: 0.199997;stroke-linecap: round;stroke-linejoin: round;stroke-miterlimit: 10.000000;fill: none;"></path>
  <path d="M414.445801 238.196289L0.000000 238.196289" style="stroke:rgb(30.000305%,30.000305%,30.000305%); stroke-width: 0.199997;stroke-linecap: round;stroke-linejoin: round;stroke-miterlimit: 10.000000;fill: none;"></path>
  <path d="M414.445801 198.345825L0.000000 198.345825" style="stroke:rgb(30.000305%,30.000305%,30.000305%); stroke-width: 0.199997;stroke-linecap: round;stroke-linejoin: round;stroke-miterlimit: 10.000000;fill: none;"></path>
  <path d="M414.445801 158.495361L0.000000 158.495361" style="stroke:rgb(30.000305%,30.000305%,30.000305%); stroke-width: 0.199997;stroke-linecap: round;stroke-linejoin: round;stroke-miterlimit: 10.000000;fill: none;"></path>
  <path d="M414.445801 118.644897L0.000000 118.644897" style="stroke:rgb(30.000305%,30.000305%,30.000305%); stroke-width: 0.199997;stroke-linecap: round;stroke-linejoin: round;stroke-miterlimit: 10.000000;fill: none;"></path>
  <path d="M414.445801 78.794434L0.000000 78.794434" style="stroke:rgb(30.000305%,30.000305%,30.000305%); stroke-width: 0.199997;stroke-linecap: round;stroke-linejoin: round;stroke-miterlimit: 10.000000;fill: none;"></path>
  <path d="M0.000000 118.644897L414.445801 118.644897" style="stroke:rgb(0.000000%,100.000000%,100.000000%); stroke-width: 1.000000;stroke-linecap: round;stroke-linejoin: round;stroke-miterlimit: 10.000000;fill: none;"></path>
  <path d="M0.000000 78.794434L414.445801 78.794434" style="stroke:rgb(0.000000%,100.000000%,100.000000%); stroke-width: 1.000000;stroke-linecap: round;stroke-linejoin: round;stroke-miterlimit: 10.000000;fill: none;"></path>
  <path d="M0.000000 716.401855L414.445801 716.401855" style="stroke:rgb(0.000000%,100.000000%,100.000000%); stroke-width: 1.000000;stroke-linecap: round;stroke-linejoin: round;stroke-miterlimit: 10.000000;fill: none;"></path>
  <path d="M0.000000 557.000000L414.445801 557.000000" style="stroke:rgb(0.000000%,100.000000%,0.000000%); stroke-width: 1.000000;stroke-linecap: round;stroke-linejoin: round;stroke-miterlimit: 10.000000;fill: none;"></path>
  <path d="M103.611450 437.448608L362.640076 437.448608L259.028625 357.747681" style="stroke:rgb(0.000000%,0.000000%,0.000000%); stroke-width: 39.850464;stroke-linecap: round;stroke-linejoin: round;stroke-miterlimit: 10.000000;fill: none;"></path>
  <path d="M362.640076 437.448608L259.028625 517.149536" style="stroke:rgb(0.000000%,0.000000%,0.000000%); stroke-width: 39.850464;stroke-linecap: round;stroke-linejoin: round;stroke-miterlimit: 10.000000;fill: none;"></path>
  <g transform="matrix(3.000000,-0.000000,-0.000000,3.000000,105.711441 435.348618)" style="fill: rgb(0.000000%,0.000000%,0.000000%);">
    <text font-size="9.962646">1</text>
  </g>
  <path d="M103.611450 437.448608l0 0" style="stroke:rgb(0.000000%,0.000000%,0.000000%); stroke-width: 3.000000;stroke-linecap: round;stroke-linejoin: round;stroke-miterlimit: 10.000000;fill: none;"></path>
  <g transform="matrix(3.000000,-0.000000,-0.000000,3.000000,364.740067 435.348618)" style="fill: rgb(0.000000%,0.000000%,0.000000%);">
    <text font-size="9.962646">2</text>
  </g>
  <path d="M362.640076 437.448608l0 0" style="stroke:rgb(0.000000%,0.000000%,0.000000%); stroke-width: 3.000000;stroke-linecap: round;stroke-linejoin: round;stroke-miterlimit: 10.000000;fill: none;"></path>
  <g transform="matrix(3.000000,-0.000000,-0.000000,3.000000,261.128616 355.647690)" style="fill: rgb(0.000000%,0.000000%,0.000000%);">
    <text font-size="9.962646">3</text>
  </g>
  <path d="M259.028625 357.747681l0 0" style="stroke:rgb(0.000000%,0.000000%,0.000000%); stroke-width: 3.000000;stroke-linecap: round;stroke-linejoin: round;stroke-miterlimit: 10.000000;fill: none;"></path>
  <g transform="matrix(3.000000,-0.000000,-0.000000,3.000000,261.128616 515.049545)" style="fill: rgb(0.000000%,0.000000%,0.000000%);">
    <text font-size="9.962646">4</text>
  </g>
  <path d="M259.028625 517.149536l0 0" style="stroke:rgb(0.000000%,0.000000%,0.000000%); stroke-width: 3.000000;stroke-linecap: round;stroke-linejoin: round;stroke-miterlimit: 10.000000;fill: none;"></path>
  <g transform="matrix(3.000000,-0.000000,-0.000000,3.000000,105.711441 475.199081)" style="fill: rgb(0.000000%,0.000000%,0.000000%);">
    <text font-size="9.962646">1</text>
  </g>
  <path d="M103.611450 477.299072l0 0" style="stroke:rgb(0.000000%,0.000000%,0.000000%); stroke-width: 3.000000;stroke-linecap: round;stroke-linejoin: round;stroke-miterlimit: 10.000000;fill: none;"></path>
  <g transform="matrix(3.000000,-0.000000,-0.000000,3.000000,0.000000 557.000000)" style="fill: rgb(0.000000%,0.000000%,0.000000%);">
    <text font-size="9.962646">2</text>
  </g>
  <path d="M466.251526 557.000000l0 0" style="stroke:rgb(0.000000%,0.000000%,0.000000%); stroke-width: 3.000000;stroke-linecap: round;stroke-linejoin: round;stroke-miterlimit: 10.000000;fill: none;"></path>
</svg>
