<?xml version="1.0"?>
<!-- Created by MetaPost 2.00 on 2020.01.24:1625 -->
<svg version="1.1" xmlns="http://www.w3.org/2000/svg" xmlns:xlink="http://www.w3.org/1999/xlink" width="318.803711" height="1275.219727" viewBox="0 0 318.803711 1275.219727">
<!-- Original BoundingBox: 0.000000 -382.565918 318.803711 892.653809 -->
  <path d="M0.000000 1274.565918L318.803711 1274.565918L318.803711 -0.653809L0.000000 -0.653809Z" style="stroke:rgb(100.000000%,0.000000%,0.000000%); stroke-width: 0.000000;stroke-linecap: round;stroke-linejoin: round;stroke-miterlimit: 10.000000;fill: none;"></path>
  <g transform="matrix(2.000000,-0.000000,-0.000000,1.000000,0.000000,0.000000)">
    <path d="M29.887848 862.112152L29.887848 220.516998" style="stroke:rgb(0.000000%,0.000000%,0.000000%); stroke-width: 59.775696;stroke-linecap: round;stroke-linejoin: round;stroke-miterlimit: 10.000000;fill: none;"></path>
  </g>
  <g transform="matrix(1.000000,-0.000000,-0.000000,0.500000,0.000000,0.000000)">
    <path d="M59.775696 1469.180359C59.775696 1119.541138,259.028015 1144.378113,259.028015 1341.658386C259.028015 1423.032776,235.825027 1497.282654,199.252319 1532.941345" style="stroke:rgb(0.000000%,0.000000%,0.000000%); stroke-width: 119.551392;stroke-linecap: round;stroke-linejoin: round;stroke-miterlimit: 10.000000;fill: none;"></path>
  </g>
  <g transform="matrix(1.000000,-0.000000,-0.000000,0.500000,0.000000,0.000000)">
    <path d="M59.775696 1341.658386L259.028015 1724.224304" style="stroke:rgb(0.000000%,0.000000%,0.000000%); stroke-width: 119.551392;stroke-linecap: round;stroke-linejoin: round;stroke-miterlimit: 10.000000;fill: none;"></path>
  </g>
</svg>
