<?xml version="1.0"?>
<!-- Created by MetaPost 2.00 on 2020.01.24:1625 -->
<svg version="1.1" xmlns="http://www.w3.org/2000/svg" xmlns:xlink="http://www.w3.org/1999/xlink" width="318.803711" height="1275.219727" viewBox="0 0 318.803711 1275.219727">
<!-- Original BoundingBox: 0.000000 -382.565918 318.803711 892.653809 -->
  <path d="M0.000000 1274.565918L318.803711 1274.565918L318.803711 -0.653809L0.000000 -0.653809Z" style="stroke:rgb(100.000000%,0.000000%,0.000000%); stroke-width: 0.000000;stroke-linecap: round;stroke-linejoin: round;stroke-miterlimit: 10.000000;fill: none;"></path>
  <g transform="matrix(2.000000,-0.000000,-0.000000,1.000000,0.000000,0.000000)">
    <path d="M39.850464 862.112152L39.850464 220.516998" style="stroke:rgb(0.000000%,0.000000%,0.000000%); stroke-width: 59.775696;stroke-linecap: round;stroke-linejoin: round;stroke-miterlimit: 10.000000;fill: none;"></path>
  </g>
</svg>
