<?xml version="1.0"?>
<!-- Created by MetaPost 2.00 on 2020.01.24:1625 -->
<svg version="1.1" xmlns="http://www.w3.org/2000/svg" xmlns:xlink="http://www.w3.org/1999/xlink" width="398.504639" height="1275.219727" viewBox="0 0 398.504639 1275.219727">
<!-- Original BoundingBox: 0.000000 -382.565918 398.504639 892.653809 -->
  <path d="M0.000000 1274.565918L398.504639 1274.565918L398.504639 -0.653809L0.000000 -0.653809Z" style="stroke:rgb(100.000000%,0.000000%,0.000000%); stroke-width: 0.000000;stroke-linecap: round;stroke-linejoin: round;stroke-miterlimit: 10.000000;fill: none;"></path>
  <g transform="matrix(1.000000,-0.000000,-0.000000,0.500000,0.000000,0.000000)">
    <path d="M119.551392 1206.165833L199.252319 1724.224304L278.953247 1206.165833" style="stroke:rgb(0.000000%,0.000000%,0.000000%); stroke-width: 119.551392;stroke-linecap: round;stroke-linejoin: round;stroke-miterlimit: 10.000000;fill: none;"></path>
  </g>
</svg>
