<?xml version="1.0"?>
<!-- Created by MetaPost 2.00 on 2020.01.24:1625 -->
<svg version="1.1" xmlns="http://www.w3.org/2000/svg" xmlns:xlink="http://www.w3.org/1999/xlink" width="458.280334" height="1275.219727" viewBox="0 0 458.280334 1275.219727">
<!-- Original BoundingBox: -59.775696 -382.565918 398.504639 892.653809 -->
  <path d="M59.000000 1274.565918L457.504639 1274.565918L457.504639 -0.653809L59.000000 -0.653809Z" style="stroke:rgb(100.000000%,0.000000%,0.000000%); stroke-width: 0.000000;stroke-linecap: round;stroke-linejoin: round;stroke-miterlimit: 10.000000;fill: none;"></path>
  <g transform="matrix(2.000000,-0.000000,-0.000000,1.000000,0.000000,0.000000)">
    <path d="M89.275696 862.112152L89.275696 220.516998" style="stroke:rgb(0.000000%,0.000000%,0.000000%); stroke-width: 59.775696;stroke-linecap: round;stroke-linejoin: round;stroke-miterlimit: 10.000000;fill: none;"></path>
  </g>
  <g transform="matrix(1.000000,-0.000000,-0.000000,0.500000,0.000000,0.000000)">
    <path d="M357.878479 441.033997L178.551392 1401.434082" style="stroke:rgb(0.000000%,0.000000%,0.000000%); stroke-width: 119.551392;stroke-linecap: round;stroke-linejoin: round;stroke-miterlimit: 10.000000;fill: none;"></path>
  </g>
  <g transform="matrix(1.000000,-0.000000,-0.000000,0.500000,0.000000,0.000000)">
    <path d="M268.214935 921.234039L59.000000 1784.000000" style="stroke:rgb(0.000000%,0.000000%,0.000000%); stroke-width: 119.551392;stroke-linecap: round;stroke-linejoin: round;stroke-miterlimit: 10.000000;fill: none;"></path>
  </g>
</svg>
