<?xml version="1.0"?>
<!-- Created by MetaPost 2.00 on 2020.01.24:1625 -->
<svg version="1.1" xmlns="http://www.w3.org/2000/svg" xmlns:xlink="http://www.w3.org/1999/xlink" width="318.803711" height="1275.219727" viewBox="0 0 318.803711 1275.219727">
<!-- Original BoundingBox: 0.000000 -382.565918 318.803711 892.653809 -->
  <path d="M0.000000 1274.565918L318.803711 1274.565918L318.803711 -0.653809L0.000000 -0.653809Z" style="stroke:rgb(100.000000%,0.000000%,0.000000%); stroke-width: 0.000000;stroke-linecap: round;stroke-linejoin: round;stroke-miterlimit: 10.000000;fill: none;"></path>
  <g transform="matrix(1.000000,-0.000000,-0.000000,0.500000,0.000000,0.000000)">
    <path d="M239.102783 827.585205C239.102783 647.067017,237.312439 441.033997,159.401855 441.033997C81.491272 441.033997,79.700928 647.067017,79.700928 827.585205L79.700928 1337.673096C79.700928 1518.191284,81.491272 1724.224304,159.401855 1724.224304C237.312439 1724.224304,239.102783 1518.191284,239.102783 1337.673096L239.102783 827.585205" style="stroke:rgb(0.000000%,0.000000%,0.000000%); stroke-width: 119.551392;stroke-linecap: round;stroke-linejoin: round;stroke-miterlimit: 10.000000;fill: none;"></path>
  </g>
  <g transform="matrix(1.000000,-0.000000,-0.000000,0.500000,0.000000,0.000000)">
    <path d="M159.401855 1784.000000C159.401855 1875.143463,173.304092 1964.118073,199.252319 2039.043945" style="stroke:rgb(0.000000%,0.000000%,0.000000%); stroke-width: 119.551392;stroke-linecap: round;stroke-linejoin: round;stroke-miterlimit: 10.000000;fill: none;"></path>
  </g>
</svg>
