<?xml version="1.0"?>
<!-- Created by MetaPost 2.00 on 2020.01.24:1630 -->
<svg version="1.1" xmlns="http://www.w3.org/2000/svg" xmlns:xlink="http://www.w3.org/1999/xlink" width="351.093414" height="1125.910172" viewBox="0 0 351.093414 1125.910172">
<!-- Original BoundingBox: -3.806000 -239.102783 347.287415 886.807388 -->
  <path d="M3.000000 1125.102783C76.156708 1063.716019,170.908554 1060.344223,182.327087 1125.102783C501.988617 856.870560,8.762695 -656.251190,182.327087 328.093506C335.548843 199.523102,-39.551376 86.769699,3.000000 328.093506C501.159622 -89.918823,-51.280136 817.261078,3.000000 1125.102783Z" style="stroke:rgb(100.000000%,0.000000%,0.000000%); stroke-width: 0.000000;stroke-linecap: round;stroke-linejoin: round;stroke-miterlimit: 10.000000;fill: none;"></path>
  <path d="M3.000000 407.794434C401.527695 73.384567,-40.424103 799.128494,3.000000 1045.401855" style="stroke:rgb(30.000305%,30.000305%,30.000305%); stroke-width: 0.199997;stroke-linecap: round;stroke-linejoin: round;stroke-miterlimit: 10.000000;fill: none;"></path>
  <path d="M62.775696 407.794434C461.303391 73.384567,19.351593 799.128494,62.775696 1045.401855" style="stroke:rgb(30.000305%,30.000305%,30.000305%); stroke-width: 0.199997;stroke-linecap: round;stroke-linejoin: round;stroke-miterlimit: 10.000000;fill: none;"></path>
  <path d="M122.551392 407.794434C521.079086 73.384567,79.127289 799.128494,122.551392 1045.401855" style="stroke:rgb(30.000305%,30.000305%,30.000305%); stroke-width: 0.199997;stroke-linecap: round;stroke-linejoin: round;stroke-miterlimit: 10.000000;fill: none;"></path>
  <path d="M182.327087 407.794434C580.854782 73.384567,138.902985 799.128494,182.327087 1045.401855" style="stroke:rgb(30.000305%,30.000305%,30.000305%); stroke-width: 0.199997;stroke-linecap: round;stroke-linejoin: round;stroke-miterlimit: 10.000000;fill: none;"></path>
  <path d="M182.327087 1045.401855C335.548843 916.831451,-39.551376 804.078049,3.000000 1045.401855" style="stroke:rgb(30.000305%,30.000305%,30.000305%); stroke-width: 0.199997;stroke-linecap: round;stroke-linejoin: round;stroke-miterlimit: 10.000000;fill: none;"></path>
  <path d="M182.327087 1005.551392C335.548843 876.980988,-39.551376 764.227585,3.000000 1005.551392" style="stroke:rgb(30.000305%,30.000305%,30.000305%); stroke-width: 0.199997;stroke-linecap: round;stroke-linejoin: round;stroke-miterlimit: 10.000000;fill: none;"></path>
  <path d="M182.327087 965.700928C335.548843 837.130524,-39.551376 724.377121,3.000000 965.700928" style="stroke:rgb(30.000305%,30.000305%,30.000305%); stroke-width: 0.199997;stroke-linecap: round;stroke-linejoin: round;stroke-miterlimit: 10.000000;fill: none;"></path>
  <path d="M182.327087 925.850464C335.548843 797.280060,-39.551376 684.526657,3.000000 925.850464" style="stroke:rgb(30.000305%,30.000305%,30.000305%); stroke-width: 0.199997;stroke-linecap: round;stroke-linejoin: round;stroke-miterlimit: 10.000000;fill: none;"></path>
  <path d="M182.327087 886.000000C335.548843 757.429596,-39.551376 644.676193,3.000000 886.000000" style="stroke:rgb(30.000305%,30.000305%,30.000305%); stroke-width: 0.199997;stroke-linecap: round;stroke-linejoin: round;stroke-miterlimit: 10.000000;fill: none;"></path>
  <path d="M182.327087 846.149536C335.548843 717.579132,-39.551376 604.825729,3.000000 846.149536" style="stroke:rgb(30.000305%,30.000305%,30.000305%); stroke-width: 0.199997;stroke-linecap: round;stroke-linejoin: round;stroke-miterlimit: 10.000000;fill: none;"></path>
  <path d="M182.327087 806.299072C335.548843 677.728668,-39.551376 564.975266,3.000000 806.299072" style="stroke:rgb(30.000305%,30.000305%,30.000305%); stroke-width: 0.199997;stroke-linecap: round;stroke-linejoin: round;stroke-miterlimit: 10.000000;fill: none;"></path>
  <path d="M182.327087 766.448608C335.548843 637.878204,-39.551376 525.124802,3.000000 766.448608" style="stroke:rgb(30.000305%,30.000305%,30.000305%); stroke-width: 0.199997;stroke-linecap: round;stroke-linejoin: round;stroke-miterlimit: 10.000000;fill: none;"></path>
  <path d="M182.327087 726.598145C335.548843 598.027740,-39.551376 485.274338,3.000000 726.598145" style="stroke:rgb(30.000305%,30.000305%,30.000305%); stroke-width: 0.199997;stroke-linecap: round;stroke-linejoin: round;stroke-miterlimit: 10.000000;fill: none;"></path>
  <path d="M182.327087 686.747681C335.548843 558.177277,-39.551376 445.423874,3.000000 686.747681" style="stroke:rgb(30.000305%,30.000305%,30.000305%); stroke-width: 0.199997;stroke-linecap: round;stroke-linejoin: round;stroke-miterlimit: 10.000000;fill: none;"></path>
  <path d="M182.327087 646.897217C335.548843 518.326813,-39.551376 405.573410,3.000000 646.897217" style="stroke:rgb(30.000305%,30.000305%,30.000305%); stroke-width: 0.199997;stroke-linecap: round;stroke-linejoin: round;stroke-miterlimit: 10.000000;fill: none;"></path>
  <path d="M182.327087 607.046753C335.548843 478.476349,-39.551376 365.722946,3.000000 607.046753" style="stroke:rgb(30.000305%,30.000305%,30.000305%); stroke-width: 0.199997;stroke-linecap: round;stroke-linejoin: round;stroke-miterlimit: 10.000000;fill: none;"></path>
  <path d="M182.327087 567.196289C335.548843 438.625885,-39.551376 325.872482,3.000000 567.196289" style="stroke:rgb(30.000305%,30.000305%,30.000305%); stroke-width: 0.199997;stroke-linecap: round;stroke-linejoin: round;stroke-miterlimit: 10.000000;fill: none;"></path>
  <path d="M182.327087 527.345825C335.548843 398.775421,-39.551376 286.022018,3.000000 527.345825" style="stroke:rgb(30.000305%,30.000305%,30.000305%); stroke-width: 0.199997;stroke-linecap: round;stroke-linejoin: round;stroke-miterlimit: 10.000000;fill: none;"></path>
  <path d="M182.327087 487.495361C335.548843 358.924957,-39.551376 246.171555,3.000000 487.495361" style="stroke:rgb(30.000305%,30.000305%,30.000305%); stroke-width: 0.199997;stroke-linecap: round;stroke-linejoin: round;stroke-miterlimit: 10.000000;fill: none;"></path>
  <path d="M182.327087 447.644897C335.548843 319.074493,-39.551376 206.321091,3.000000 447.644897" style="stroke:rgb(30.000305%,30.000305%,30.000305%); stroke-width: 0.199997;stroke-linecap: round;stroke-linejoin: round;stroke-miterlimit: 10.000000;fill: none;"></path>
  <path d="M182.327087 407.794434C335.548843 279.224030,-39.551376 166.470627,3.000000 407.794434" style="stroke:rgb(30.000305%,30.000305%,30.000305%); stroke-width: 0.199997;stroke-linecap: round;stroke-linejoin: round;stroke-miterlimit: 10.000000;fill: none;"></path>
  <path d="M3.000000 447.644897C76.156708 386.258133,170.908554 382.886337,182.327087 447.644897" style="stroke:rgb(0.000000%,100.000000%,100.000000%); stroke-width: 1.000000;stroke-linecap: round;stroke-linejoin: round;stroke-miterlimit: 10.000000;fill: none;"></path>
  <path d="M3.000000 407.794434C76.156708 346.407669,170.908554 343.035873,182.327087 407.794434" style="stroke:rgb(0.000000%,100.000000%,100.000000%); stroke-width: 1.000000;stroke-linecap: round;stroke-linejoin: round;stroke-miterlimit: 10.000000;fill: none;"></path>
  <path d="M3.000000 1045.401855C76.156708 984.015091,170.908554 980.643295,182.327087 1045.401855" style="stroke:rgb(0.000000%,100.000000%,100.000000%); stroke-width: 1.000000;stroke-linecap: round;stroke-linejoin: round;stroke-miterlimit: 10.000000;fill: none;"></path>
  <path d="M3.000000 886.000000C76.156708 824.613235,170.908554 821.241440,182.327087 886.000000" style="stroke:rgb(0.000000%,100.000000%,0.000000%); stroke-width: 1.000000;stroke-linecap: round;stroke-linejoin: round;stroke-miterlimit: 10.000000;fill: none;"></path>
  <path d="M32.887848 450.135559C84.793182 406.581100,143.497559 359.573639,152.439240 410.285095C448.221512 162.090286,120.210419 700.728333,152.439240 883.509338" style="stroke:rgb(0.000000%,0.000000%,0.000000%); stroke-width: 4.981308;stroke-linecap: round;stroke-linejoin: round;stroke-miterlimit: 10.000000;fill: none;"></path>
</svg>
