<?xml version="1.0"?>
<!-- Created by MetaPost 2.00 on 2020.01.24:1630 -->
<svg version="1.1" xmlns="http://www.w3.org/2000/svg" xmlns:xlink="http://www.w3.org/1999/xlink" width="777.113113" height="1269.664627" viewBox="0 0 777.113113 1269.664627">
<!-- Original BoundingBox: -11.395828 -239.102783 765.717285 1030.561844 -->
  <path d="M11.000000 1269.102783C254.855682 1064.480255,570.695160 1053.240936,608.756958 1269.102783C928.418488 1000.870560,435.192566 -512.251190,608.756958 472.093506C1119.496155 43.525497,-130.837906 -332.319214,11.000000 472.093506C509.159622 54.081177,-43.280136 961.261078,11.000000 1269.102783Z" style="stroke:rgb(100.000000%,0.000000%,0.000000%); stroke-width: 0.000000;stroke-linecap: round;stroke-linejoin: round;stroke-miterlimit: 10.000000;fill: none;"></path>
  <path d="M11.000000 551.794434C409.527695 217.384567,-32.424103 943.128494,11.000000 1189.401855" style="stroke:rgb(30.000305%,30.000305%,30.000305%); stroke-width: 0.199997;stroke-linecap: round;stroke-linejoin: round;stroke-miterlimit: 10.000000;fill: none;"></path>
  <path d="M70.775696 551.794434C469.303391 217.384567,27.351593 943.128494,70.775696 1189.401855" style="stroke:rgb(30.000305%,30.000305%,30.000305%); stroke-width: 0.199997;stroke-linecap: round;stroke-linejoin: round;stroke-miterlimit: 10.000000;fill: none;"></path>
  <path d="M130.551392 551.794434C529.079086 217.384567,87.127289 943.128494,130.551392 1189.401855" style="stroke:rgb(30.000305%,30.000305%,30.000305%); stroke-width: 0.199997;stroke-linecap: round;stroke-linejoin: round;stroke-miterlimit: 10.000000;fill: none;"></path>
  <path d="M190.327087 551.794434C588.854782 217.384567,146.902985 943.128494,190.327087 1189.401855" style="stroke:rgb(30.000305%,30.000305%,30.000305%); stroke-width: 0.199997;stroke-linecap: round;stroke-linejoin: round;stroke-miterlimit: 10.000000;fill: none;"></path>
  <path d="M250.102783 551.794434C648.630478 217.384567,206.678680 943.128494,250.102783 1189.401855" style="stroke:rgb(30.000305%,30.000305%,30.000305%); stroke-width: 0.199997;stroke-linecap: round;stroke-linejoin: round;stroke-miterlimit: 10.000000;fill: none;"></path>
  <path d="M309.878479 551.794434C708.406174 217.384567,266.454376 943.128494,309.878479 1189.401855" style="stroke:rgb(30.000305%,30.000305%,30.000305%); stroke-width: 0.199997;stroke-linecap: round;stroke-linejoin: round;stroke-miterlimit: 10.000000;fill: none;"></path>
  <path d="M369.654175 551.794434C768.181870 217.384567,326.230072 943.128494,369.654175 1189.401855" style="stroke:rgb(30.000305%,30.000305%,30.000305%); stroke-width: 0.199997;stroke-linecap: round;stroke-linejoin: round;stroke-miterlimit: 10.000000;fill: none;"></path>
  <path d="M429.429871 551.794434C827.957565 217.384567,386.005768 943.128494,429.429871 1189.401855" style="stroke:rgb(30.000305%,30.000305%,30.000305%); stroke-width: 0.199997;stroke-linecap: round;stroke-linejoin: round;stroke-miterlimit: 10.000000;fill: none;"></path>
  <path d="M489.205566 551.794434C887.733261 217.384567,445.781464 943.128494,489.205566 1189.401855" style="stroke:rgb(30.000305%,30.000305%,30.000305%); stroke-width: 0.199997;stroke-linecap: round;stroke-linejoin: round;stroke-miterlimit: 10.000000;fill: none;"></path>
  <path d="M548.981262 551.794434C947.508957 217.384567,505.557159 943.128494,548.981262 1189.401855" style="stroke:rgb(30.000305%,30.000305%,30.000305%); stroke-width: 0.199997;stroke-linecap: round;stroke-linejoin: round;stroke-miterlimit: 10.000000;fill: none;"></path>
  <path d="M608.756958 551.794434C1007.284653 217.384567,565.332855 943.128494,608.756958 1189.401855" style="stroke:rgb(30.000305%,30.000305%,30.000305%); stroke-width: 0.199997;stroke-linecap: round;stroke-linejoin: round;stroke-miterlimit: 10.000000;fill: none;"></path>
  <path d="M608.756958 1189.401855C1119.496155 760.833847,-130.837906 384.989136,11.000000 1189.401855" style="stroke:rgb(30.000305%,30.000305%,30.000305%); stroke-width: 0.199997;stroke-linecap: round;stroke-linejoin: round;stroke-miterlimit: 10.000000;fill: none;"></path>
  <path d="M608.756958 1149.551392C1119.496155 720.983383,-130.837906 345.138672,11.000000 1149.551392" style="stroke:rgb(30.000305%,30.000305%,30.000305%); stroke-width: 0.199997;stroke-linecap: round;stroke-linejoin: round;stroke-miterlimit: 10.000000;fill: none;"></path>
  <path d="M608.756958 1109.700928C1119.496155 681.132919,-130.837906 305.288208,11.000000 1109.700928" style="stroke:rgb(30.000305%,30.000305%,30.000305%); stroke-width: 0.199997;stroke-linecap: round;stroke-linejoin: round;stroke-miterlimit: 10.000000;fill: none;"></path>
  <path d="M608.756958 1069.850464C1119.496155 641.282455,-130.837906 265.437744,11.000000 1069.850464" style="stroke:rgb(30.000305%,30.000305%,30.000305%); stroke-width: 0.199997;stroke-linecap: round;stroke-linejoin: round;stroke-miterlimit: 10.000000;fill: none;"></path>
  <path d="M608.756958 1030.000000C1119.496155 601.431992,-130.837906 225.587280,11.000000 1030.000000" style="stroke:rgb(30.000305%,30.000305%,30.000305%); stroke-width: 0.199997;stroke-linecap: round;stroke-linejoin: round;stroke-miterlimit: 10.000000;fill: none;"></path>
  <path d="M608.756958 990.149536C1119.496155 561.581528,-130.837906 185.736816,11.000000 990.149536" style="stroke:rgb(30.000305%,30.000305%,30.000305%); stroke-width: 0.199997;stroke-linecap: round;stroke-linejoin: round;stroke-miterlimit: 10.000000;fill: none;"></path>
  <path d="M608.756958 950.299072C1119.496155 521.731064,-130.837906 145.886353,11.000000 950.299072" style="stroke:rgb(30.000305%,30.000305%,30.000305%); stroke-width: 0.199997;stroke-linecap: round;stroke-linejoin: round;stroke-miterlimit: 10.000000;fill: none;"></path>
  <path d="M608.756958 910.448608C1119.496155 481.880600,-130.837906 106.035889,11.000000 910.448608" style="stroke:rgb(30.000305%,30.000305%,30.000305%); stroke-width: 0.199997;stroke-linecap: round;stroke-linejoin: round;stroke-miterlimit: 10.000000;fill: none;"></path>
  <path d="M608.756958 870.598145C1119.496155 442.030136,-130.837906 66.185425,11.000000 870.598145" style="stroke:rgb(30.000305%,30.000305%,30.000305%); stroke-width: 0.199997;stroke-linecap: round;stroke-linejoin: round;stroke-miterlimit: 10.000000;fill: none;"></path>
  <path d="M608.756958 830.747681C1119.496155 402.179672,-130.837906 26.334961,11.000000 830.747681" style="stroke:rgb(30.000305%,30.000305%,30.000305%); stroke-width: 0.199997;stroke-linecap: round;stroke-linejoin: round;stroke-miterlimit: 10.000000;fill: none;"></path>
  <path d="M608.756958 790.897217C1119.496155 362.329208,-130.837906 -13.515503,11.000000 790.897217" style="stroke:rgb(30.000305%,30.000305%,30.000305%); stroke-width: 0.199997;stroke-linecap: round;stroke-linejoin: round;stroke-miterlimit: 10.000000;fill: none;"></path>
  <path d="M608.756958 751.046753C1119.496155 322.478745,-130.837906 -53.365967,11.000000 751.046753" style="stroke:rgb(30.000305%,30.000305%,30.000305%); stroke-width: 0.199997;stroke-linecap: round;stroke-linejoin: round;stroke-miterlimit: 10.000000;fill: none;"></path>
  <path d="M608.756958 711.196289C1119.496155 282.628281,-130.837906 -93.216431,11.000000 711.196289" style="stroke:rgb(30.000305%,30.000305%,30.000305%); stroke-width: 0.199997;stroke-linecap: round;stroke-linejoin: round;stroke-miterlimit: 10.000000;fill: none;"></path>
  <path d="M608.756958 671.345825C1119.496155 242.777817,-130.837906 -133.066895,11.000000 671.345825" style="stroke:rgb(30.000305%,30.000305%,30.000305%); stroke-width: 0.199997;stroke-linecap: round;stroke-linejoin: round;stroke-miterlimit: 10.000000;fill: none;"></path>
  <path d="M608.756958 631.495361C1119.496155 202.927353,-130.837906 -172.917358,11.000000 631.495361" style="stroke:rgb(30.000305%,30.000305%,30.000305%); stroke-width: 0.199997;stroke-linecap: round;stroke-linejoin: round;stroke-miterlimit: 10.000000;fill: none;"></path>
  <path d="M608.756958 591.644897C1119.496155 163.076889,-130.837906 -212.767822,11.000000 591.644897" style="stroke:rgb(30.000305%,30.000305%,30.000305%); stroke-width: 0.199997;stroke-linecap: round;stroke-linejoin: round;stroke-miterlimit: 10.000000;fill: none;"></path>
  <path d="M608.756958 551.794434C1119.496155 123.226425,-130.837906 -252.618286,11.000000 551.794434" style="stroke:rgb(30.000305%,30.000305%,30.000305%); stroke-width: 0.199997;stroke-linecap: round;stroke-linejoin: round;stroke-miterlimit: 10.000000;fill: none;"></path>
  <path d="M11.000000 591.644897C254.855682 387.022369,570.695160 375.783051,608.756958 591.644897" style="stroke:rgb(0.000000%,100.000000%,100.000000%); stroke-width: 1.000000;stroke-linecap: round;stroke-linejoin: round;stroke-miterlimit: 10.000000;fill: none;"></path>
  <path d="M11.000000 551.794434C254.855682 347.171906,570.695160 335.932587,608.756958 551.794434" style="stroke:rgb(0.000000%,100.000000%,100.000000%); stroke-width: 1.000000;stroke-linecap: round;stroke-linejoin: round;stroke-miterlimit: 10.000000;fill: none;"></path>
  <path d="M11.000000 1189.401855C254.855682 984.779327,570.695160 973.540009,608.756958 1189.401855" style="stroke:rgb(0.000000%,100.000000%,100.000000%); stroke-width: 1.000000;stroke-linecap: round;stroke-linejoin: round;stroke-miterlimit: 10.000000;fill: none;"></path>
  <path d="M11.000000 1030.000000C254.855682 825.377472,570.695160 814.138153,608.756958 1030.000000" style="stroke:rgb(0.000000%,100.000000%,0.000000%); stroke-width: 1.000000;stroke-linecap: round;stroke-linejoin: round;stroke-miterlimit: 10.000000;fill: none;"></path>
</svg>
