<?xml version="1.0"?>
<!-- Created by MetaPost 2.00 on 2020.01.24:1630 -->
<svg version="1.1" xmlns="http://www.w3.org/2000/svg" xmlns:xlink="http://www.w3.org/1999/xlink" width="472.586731" height="1125.910172" viewBox="0 0 472.586731 1125.910172">
<!-- Original BoundingBox: -5.747925 -239.102783 466.838806 886.807388 -->
  <path d="M5.000000 1125.102783C126.927841 1022.791519,284.847580 1017.171860,303.878479 1125.102783C623.540009 856.870560,130.314087 -656.251190,303.878479 328.093506C559.248077 113.809509,-65.918961 -74.112854,5.000000 328.093506C503.159622 -89.918823,-49.280136 817.261078,5.000000 1125.102783Z" style="stroke:rgb(100.000000%,0.000000%,0.000000%); stroke-width: 0.000000;stroke-linecap: round;stroke-linejoin: round;stroke-miterlimit: 10.000000;fill: none;"></path>
  <path d="M5.000000 407.794434C403.527695 73.384567,-38.424103 799.128494,5.000000 1045.401855" style="stroke:rgb(30.000305%,30.000305%,30.000305%); stroke-width: 0.199997;stroke-linecap: round;stroke-linejoin: round;stroke-miterlimit: 10.000000;fill: none;"></path>
  <path d="M64.775696 407.794434C463.303391 73.384567,21.351593 799.128494,64.775696 1045.401855" style="stroke:rgb(30.000305%,30.000305%,30.000305%); stroke-width: 0.199997;stroke-linecap: round;stroke-linejoin: round;stroke-miterlimit: 10.000000;fill: none;"></path>
  <path d="M124.551392 407.794434C523.079086 73.384567,81.127289 799.128494,124.551392 1045.401855" style="stroke:rgb(30.000305%,30.000305%,30.000305%); stroke-width: 0.199997;stroke-linecap: round;stroke-linejoin: round;stroke-miterlimit: 10.000000;fill: none;"></path>
  <path d="M184.327087 407.794434C582.854782 73.384567,140.902985 799.128494,184.327087 1045.401855" style="stroke:rgb(30.000305%,30.000305%,30.000305%); stroke-width: 0.199997;stroke-linecap: round;stroke-linejoin: round;stroke-miterlimit: 10.000000;fill: none;"></path>
  <path d="M244.102783 407.794434C642.630478 73.384567,200.678680 799.128494,244.102783 1045.401855" style="stroke:rgb(30.000305%,30.000305%,30.000305%); stroke-width: 0.199997;stroke-linecap: round;stroke-linejoin: round;stroke-miterlimit: 10.000000;fill: none;"></path>
  <path d="M303.878479 407.794434C702.406174 73.384567,260.454376 799.128494,303.878479 1045.401855" style="stroke:rgb(30.000305%,30.000305%,30.000305%); stroke-width: 0.199997;stroke-linecap: round;stroke-linejoin: round;stroke-miterlimit: 10.000000;fill: none;"></path>
  <path d="M303.878479 1045.401855C559.248077 831.117859,-65.918961 643.195496,5.000000 1045.401855" style="stroke:rgb(30.000305%,30.000305%,30.000305%); stroke-width: 0.199997;stroke-linecap: round;stroke-linejoin: round;stroke-miterlimit: 10.000000;fill: none;"></path>
  <path d="M303.878479 1005.551392C559.248077 791.267395,-65.918961 603.345032,5.000000 1005.551392" style="stroke:rgb(30.000305%,30.000305%,30.000305%); stroke-width: 0.199997;stroke-linecap: round;stroke-linejoin: round;stroke-miterlimit: 10.000000;fill: none;"></path>
  <path d="M303.878479 965.700928C559.248077 751.416931,-65.918961 563.494568,5.000000 965.700928" style="stroke:rgb(30.000305%,30.000305%,30.000305%); stroke-width: 0.199997;stroke-linecap: round;stroke-linejoin: round;stroke-miterlimit: 10.000000;fill: none;"></path>
  <path d="M303.878479 925.850464C559.248077 711.566467,-65.918961 523.644104,5.000000 925.850464" style="stroke:rgb(30.000305%,30.000305%,30.000305%); stroke-width: 0.199997;stroke-linecap: round;stroke-linejoin: round;stroke-miterlimit: 10.000000;fill: none;"></path>
  <path d="M303.878479 886.000000C559.248077 671.716003,-65.918961 483.793640,5.000000 886.000000" style="stroke:rgb(30.000305%,30.000305%,30.000305%); stroke-width: 0.199997;stroke-linecap: round;stroke-linejoin: round;stroke-miterlimit: 10.000000;fill: none;"></path>
  <path d="M303.878479 846.149536C559.248077 631.865540,-65.918961 443.943176,5.000000 846.149536" style="stroke:rgb(30.000305%,30.000305%,30.000305%); stroke-width: 0.199997;stroke-linecap: round;stroke-linejoin: round;stroke-miterlimit: 10.000000;fill: none;"></path>
  <path d="M303.878479 806.299072C559.248077 592.015076,-65.918961 404.092712,5.000000 806.299072" style="stroke:rgb(30.000305%,30.000305%,30.000305%); stroke-width: 0.199997;stroke-linecap: round;stroke-linejoin: round;stroke-miterlimit: 10.000000;fill: none;"></path>
  <path d="M303.878479 766.448608C559.248077 552.164612,-65.918961 364.242249,5.000000 766.448608" style="stroke:rgb(30.000305%,30.000305%,30.000305%); stroke-width: 0.199997;stroke-linecap: round;stroke-linejoin: round;stroke-miterlimit: 10.000000;fill: none;"></path>
  <path d="M303.878479 726.598145C559.248077 512.314148,-65.918961 324.391785,5.000000 726.598145" style="stroke:rgb(30.000305%,30.000305%,30.000305%); stroke-width: 0.199997;stroke-linecap: round;stroke-linejoin: round;stroke-miterlimit: 10.000000;fill: none;"></path>
  <path d="M303.878479 686.747681C559.248077 472.463684,-65.918961 284.541321,5.000000 686.747681" style="stroke:rgb(30.000305%,30.000305%,30.000305%); stroke-width: 0.199997;stroke-linecap: round;stroke-linejoin: round;stroke-miterlimit: 10.000000;fill: none;"></path>
  <path d="M303.878479 646.897217C559.248077 432.613220,-65.918961 244.690857,5.000000 646.897217" style="stroke:rgb(30.000305%,30.000305%,30.000305%); stroke-width: 0.199997;stroke-linecap: round;stroke-linejoin: round;stroke-miterlimit: 10.000000;fill: none;"></path>
  <path d="M303.878479 607.046753C559.248077 392.762756,-65.918961 204.840393,5.000000 607.046753" style="stroke:rgb(30.000305%,30.000305%,30.000305%); stroke-width: 0.199997;stroke-linecap: round;stroke-linejoin: round;stroke-miterlimit: 10.000000;fill: none;"></path>
  <path d="M303.878479 567.196289C559.248077 352.912292,-65.918961 164.989929,5.000000 567.196289" style="stroke:rgb(30.000305%,30.000305%,30.000305%); stroke-width: 0.199997;stroke-linecap: round;stroke-linejoin: round;stroke-miterlimit: 10.000000;fill: none;"></path>
  <path d="M303.878479 527.345825C559.248077 313.061829,-65.918961 125.139465,5.000000 527.345825" style="stroke:rgb(30.000305%,30.000305%,30.000305%); stroke-width: 0.199997;stroke-linecap: round;stroke-linejoin: round;stroke-miterlimit: 10.000000;fill: none;"></path>
  <path d="M303.878479 487.495361C559.248077 273.211365,-65.918961 85.289001,5.000000 487.495361" style="stroke:rgb(30.000305%,30.000305%,30.000305%); stroke-width: 0.199997;stroke-linecap: round;stroke-linejoin: round;stroke-miterlimit: 10.000000;fill: none;"></path>
  <path d="M303.878479 447.644897C559.248077 233.360901,-65.918961 45.438538,5.000000 447.644897" style="stroke:rgb(30.000305%,30.000305%,30.000305%); stroke-width: 0.199997;stroke-linecap: round;stroke-linejoin: round;stroke-miterlimit: 10.000000;fill: none;"></path>
  <path d="M303.878479 407.794434C559.248077 193.510437,-65.918961 5.588074,5.000000 407.794434" style="stroke:rgb(30.000305%,30.000305%,30.000305%); stroke-width: 0.199997;stroke-linecap: round;stroke-linejoin: round;stroke-miterlimit: 10.000000;fill: none;"></path>
  <path d="M5.000000 447.644897C126.927841 345.333633,284.847580 339.713974,303.878479 447.644897" style="stroke:rgb(0.000000%,100.000000%,100.000000%); stroke-width: 1.000000;stroke-linecap: round;stroke-linejoin: round;stroke-miterlimit: 10.000000;fill: none;"></path>
  <path d="M5.000000 407.794434C126.927841 305.483170,284.847580 299.863510,303.878479 407.794434" style="stroke:rgb(0.000000%,100.000000%,100.000000%); stroke-width: 1.000000;stroke-linecap: round;stroke-linejoin: round;stroke-miterlimit: 10.000000;fill: none;"></path>
  <path d="M5.000000 1045.401855C126.927841 943.090591,284.847580 937.470932,303.878479 1045.401855" style="stroke:rgb(0.000000%,100.000000%,100.000000%); stroke-width: 1.000000;stroke-linecap: round;stroke-linejoin: round;stroke-miterlimit: 10.000000;fill: none;"></path>
  <path d="M5.000000 886.000000C126.927841 783.688736,284.847580 778.069077,303.878479 886.000000" style="stroke:rgb(0.000000%,100.000000%,0.000000%); stroke-width: 1.000000;stroke-linecap: round;stroke-linejoin: round;stroke-miterlimit: 10.000000;fill: none;"></path>
  <path d="M34.887848 883.509338C208.703796 737.658081,-59.487778 -85.101852,34.887848 450.135559" style="stroke:rgb(0.000000%,0.000000%,0.000000%); stroke-width: 4.981308;stroke-linecap: round;stroke-linejoin: round;stroke-miterlimit: 10.000000;fill: none;"></path>
  <path d="M34.887848 450.135559C83.658981 409.211060,146.826889 406.963196,154.439240 450.135559C225.610657 450.135559,285.757919 503.202103,273.990631 567.196289C264.412308 619.286194,210.053314 646.897217,154.439240 646.897217C256.587082 561.183624,6.520264 486.014664,34.887848 646.897217" style="stroke:rgb(0.000000%,0.000000%,0.000000%); stroke-width: 4.981308;stroke-linecap: round;stroke-linejoin: round;stroke-miterlimit: 10.000000;fill: none;"></path>
</svg>
