<?xml version="1.0"?>
<!-- Created by MetaPost 2.00 on 2020.01.24:1629 -->
<svg version="1.1" xmlns="http://www.w3.org/2000/svg" xmlns:xlink="http://www.w3.org/1999/xlink" width="3626.392212" height="1402.741699" viewBox="0 0 3626.392212 1402.741699">
<!-- Original BoundingBox: 0.000000 -382.565918 3626.392212 1020.175781 -->
  <path d="M0.000000 1402.565918L3626.392212 1402.565918L3626.392212 -0.175781L0.000000 -0.175781Z" style="stroke:rgb(100.000000%,0.000000%,0.000000%); stroke-width: 0.000000;stroke-linejoin: bevel;stroke-miterlimit: 10.000000;fill: none;"></path>
  <path d="M2669.981079 549.762573L3028.635254 470.061646C3028.635254 359.799118,2896.493027 318.629150,2769.607239 318.629150L2410.953064 318.629150L2410.953064 318.629150L856.784973 318.629150C729.899185 318.629150,597.756958 359.799118,597.756958 470.061646L597.756958 549.762573L597.756958 549.762573L597.756958 868.567505C597.756958 978.830032,729.899185 1020.000000,856.784973 1020.000000L1215.439148 1020.000000L1215.439148 1020.000000L2769.607239 1020.000000C2896.493027 1020.000000,3028.635254 978.830032,3028.635254 868.567505L3028.635254 788.866577L3028.635254 788.866577L3028.635254 470.061646L2669.981079 549.762573L2669.981079 868.567505L2669.981079 788.866577C2669.981079 899.129105,2537.838852 940.299072,2410.953064 940.299072L856.784973 940.299072L1215.439148 940.299072C1088.553360 940.299072,956.411133 899.129105,956.411133 788.866577L956.411133 470.061646L956.411133 549.762573C956.411133 439.500046,1088.553360 398.330078,1215.439148 398.330078L2769.607239 398.330078L2410.953064 398.330078C2537.838852 398.330078,2669.981079 439.500046,2669.981079 549.762573Z" style="fill: rgb(0.000000%,0.000000%,0.000000%);stroke: none;"></path>
</svg>
