<?xml version="1.0"?>
<!-- Created by MetaPost 2.00 on 2020.01.24:1629 -->
<svg version="1.1" xmlns="http://www.w3.org/2000/svg" xmlns:xlink="http://www.w3.org/1999/xlink" width="3626.392212" height="1402.741699" viewBox="0 0 3626.392212 1402.741699">
<!-- Original BoundingBox: 0.000000 -382.565918 3626.392212 1020.175781 -->
  <path d="M0.000000 1402.565918L3626.392212 1402.565918L3626.392212 -0.175781L0.000000 -0.175781Z" style="stroke:rgb(100.000000%,0.000000%,0.000000%); stroke-width: 0.000000;stroke-linejoin: bevel;stroke-miterlimit: 10.000000;fill: none;"></path>
  <path d="M2669.981079 549.762573L3028.635254 470.061646C3028.635254 275.856964,2918.760956 220.412384,2758.613693 220.412384L2399.959518 220.412384C2186.810791 220.412384,1884.606476 318.629166,1633.869064 318.629150L1992.523239 318.629150L1992.523193 318.629150C1741.785767 318.629150,1439.581451 220.412384,1226.432693 220.412384L867.778519 220.412384C707.631256 220.412384,597.756958 275.856964,597.756958 470.061646L597.756958 549.762573L597.756958 549.762573L597.756958 804.806519C597.756958 1021.153152,742.547134 1075.523590,943.567825 1075.523590L1302.222000 1075.523590C1505.363266 1075.523590,1765.927643 1020.000000,1992.523193 1020.000000L1633.869019 1020.000000C1860.464569 1020.000000,2121.028946 1075.523590,2324.170212 1075.523590L2682.824387 1075.523590C2883.845078 1075.523590,3028.635254 1021.153152,3028.635254 804.806519L3028.635254 725.105591L3028.635254 725.105591L2669.981079 725.105591C2669.981079 941.452225,2525.190903 995.822662,2324.170212 995.822662L2682.824387 995.822662C2479.683121 995.822662,2219.118744 940.299072,1992.523193 940.299072L1633.869019 940.299072L1633.869019 940.299072C1407.273468 940.299072,1146.709091 995.822662,943.567825 995.822662L1302.222000 995.822662C1101.201309 995.822662,956.411133 941.452225,956.411133 725.105591L956.411133 470.061646L956.411133 549.762573C956.411133 355.557892,1066.285431 300.113312,1226.432693 300.113312L867.778519 300.113312C1080.927277 300.113312,1383.131592 398.330078,1633.869019 398.330078L1992.523193 398.330078L1992.523193 398.330078L1633.869019 398.330078L1633.869064 398.330078L1992.523239 398.330078C2243.260651 398.330093,2545.464951 300.113327,2758.613693 300.113312L2399.959518 300.113312C2560.106781 300.113312,2669.981079 355.557892,2669.981079 549.762573Z" style="fill: rgb(0.000000%,0.000000%,0.000000%);stroke: none;"></path>
  <path d="M597.756958 629.464111L956.411133 709.165039L2251.551208 709.165039L1892.897034 629.464111Z" style="fill: rgb(0.000000%,0.000000%,0.000000%);stroke: none;"></path>
</svg>
