<?xml version="1.0"?>
<!-- Created by MetaPost 2.00 on 2020.01.24:1629 -->
<svg version="1.1" xmlns="http://www.w3.org/2000/svg" xmlns:xlink="http://www.w3.org/1999/xlink" width="3626.392212" height="1402.741699" viewBox="0 0 3626.392212 1402.741699">
<!-- Original BoundingBox: 0.000000 -382.565918 3626.392212 1020.175781 -->
  <path d="M0.000000 1402.565918L3626.392212 1402.565918L3626.392212 -0.175781L0.000000 -0.175781Z" style="stroke:rgb(100.000000%,0.000000%,0.000000%); stroke-width: 0.000000;stroke-linejoin: bevel;stroke-miterlimit: 10.000000;fill: none;"></path>
  <path d="M1733.495178 151.256714L1374.841003 230.957642L1892.897034 294.718628L2251.551208 215.017700Z" style="fill: rgb(0.000000%,0.000000%,0.000000%);stroke: none;"></path>
</svg>
