<?xml version="1.0"?>
<!-- Created by MetaPost 2.00 on 2020.01.24:1629 -->
<svg version="1.1" xmlns="http://www.w3.org/2000/svg" xmlns:xlink="http://www.w3.org/1999/xlink" width="3626.392212" height="1402.741699" viewBox="0 0 3626.392212 1402.741699">
<!-- Original BoundingBox: 0.000000 -382.565918 3626.392212 1020.175781 -->
  <path d="M0.000000 1402.565918L3626.392212 1402.565918L3626.392212 -0.175781L0.000000 -0.175781Z" style="stroke:rgb(100.000000%,0.000000%,0.000000%); stroke-width: 0.000000;stroke-linejoin: bevel;stroke-miterlimit: 10.000000;fill: none;"></path>
  <path d="M2669.981079 517.882080L3028.635254 438.181152C3028.635254 251.436996,2930.935684 195.643860,2785.953949 195.643860L2427.299774 195.643860C2212.046646 195.643860,1892.569046 318.629150,1633.869019 318.629150L1992.523193 318.629150C1733.823166 318.629150,1414.345581 195.643860,1199.092453 195.643860L840.438278 195.643860C695.456543 195.643860,597.756958 251.436996,597.756958 438.181152L597.756958 517.882080L597.756958 517.882080C597.756958 714.290558,711.137451 769.643112,875.560242 769.643112L1234.214417 769.643112C1446.603302 769.643112,1744.158890 677.284546,1992.523193 677.284546C2229.641571 677.284546,2507.088776 606.910309,2715.174606 606.910309L2356.520432 606.910309C2540.303696 606.910309,2669.981079 661.806290,2669.981079 868.567505L2669.981079 788.866577C2669.981079 983.071259,2560.106781 1038.515839,2399.959518 1038.515839L2758.613693 1038.515839C2545.464935 1038.515839,2243.260620 940.299072,1992.523193 940.299072L1633.869019 940.299072L1633.869019 940.299072C1383.131592 940.299072,1080.927277 1038.515839,867.778519 1038.515839L1226.432693 1038.515839C1066.285431 1038.515839,956.411133 983.071259,956.411133 788.866577L597.756958 868.567505C597.756958 1062.772186,707.631256 1118.216766,867.778519 1118.216766L1226.432693 1118.216766C1439.581451 1118.216766,1741.785767 1020.000000,1992.523193 1020.000000L1633.869019 1020.000000C1884.606445 1020.000000,2186.810760 1118.216766,2399.959518 1118.216766L2758.613693 1118.216766C2918.760956 1118.216766,3028.635254 1062.772186,3028.635254 868.567505L3028.635254 788.866577L3028.635254 788.866577C3028.635254 582.105362,2898.957870 527.209381,2715.174606 527.209381L2356.520432 527.209381C2148.434601 527.209381,1870.987411 597.583618,1633.869019 597.583618C1385.504715 597.583618,1087.949142 689.942184,875.560257 689.942184L1234.214432 689.942184C1069.791626 689.942184,956.411133 634.589630,956.411133 438.181152L956.411133 517.882080C956.411133 331.137924,1054.110703 275.344788,1199.092438 275.344788L840.438263 275.344788C1055.691391 275.344788,1375.168991 398.330078,1633.869019 398.330078L1992.523193 398.330078L1992.523193 398.330078C2251.223221 398.330078,2570.700806 275.344788,2785.953934 275.344788L2427.299759 275.344788C2572.281494 275.344788,2669.981079 331.137924,2669.981079 517.882080Z" style="fill: rgb(0.000000%,0.000000%,0.000000%);stroke: none;"></path>
</svg>
