<?xml version="1.0"?>
<!-- Created by MetaPost 2.00 on 2020.01.24:1629 -->
<svg version="1.1" xmlns="http://www.w3.org/2000/svg" xmlns:xlink="http://www.w3.org/1999/xlink" width="3626.392212" height="1402.741699" viewBox="0 0 3626.392212 1402.741699">
<!-- Original BoundingBox: 0.000000 -382.565918 3626.392212 1020.175781 -->
  <path d="M0.000000 1402.565918L3626.392212 1402.565918L3626.392212 -0.175781L0.000000 -0.175781Z" style="stroke:rgb(100.000000%,0.000000%,0.000000%); stroke-width: 0.000000;stroke-linejoin: bevel;stroke-miterlimit: 10.000000;fill: none;"></path>
  <path d="M3028.635254 318.629150L2669.981079 398.330078L2669.981079 836.687012L2669.981079 756.986084C2669.981079 960.914764,2544.751587 1015.943863,2366.170624 1015.943863L2724.824799 1015.943863C2515.448044 1015.943863,2232.732605 940.299072,1992.523193 940.299072L1633.869019 940.299072L1633.869019 940.299072C1393.659607 940.299072,1110.944168 1015.943863,901.567413 1015.943863L1260.221588 1015.943863C1081.640625 1015.943863,956.411133 960.914764,956.411133 756.986084L956.411133 318.629150L597.756958 398.330078L597.756958 836.687012C597.756958 1040.615692,722.986450 1095.644791,901.567413 1095.644791L1260.221588 1095.644791C1469.598343 1095.644791,1752.313782 1020.000000,1992.523193 1020.000000L1633.869019 1020.000000C1874.078430 1020.000000,2156.793869 1095.644791,2366.170624 1095.644791L2724.824799 1095.644791C2903.405762 1095.644791,3028.635254 1040.615692,3028.635254 836.687012L3028.635254 756.986084Z" style="fill: rgb(0.000000%,0.000000%,0.000000%);stroke: none;"></path>
</svg>
