<?xml version="1.0"?>
<!-- Created by MetaPost 2.00 on 2020.01.24:1629 -->
<svg version="1.1" xmlns="http://www.w3.org/2000/svg" xmlns:xlink="http://www.w3.org/1999/xlink" width="3108.336182" height="1402.741699" viewBox="0 0 3108.336182 1402.741699">
<!-- Original BoundingBox: 0.000000 -382.565918 3108.336182 1020.175781 -->
  <path d="M0.000000 1402.565918L3108.336182 1402.565918L3108.336182 -0.175781L0.000000 -0.175781Z" style="stroke:rgb(100.000000%,0.000000%,0.000000%); stroke-width: 0.000000;stroke-linejoin: bevel;stroke-miterlimit: 10.000000;fill: none;"></path>
  <path d="M1374.841003 318.629150L1733.495178 398.330078L2769.607239 398.330078L2410.953064 398.330078L2410.953064 709.165039L2410.953064 1020.000000L2410.953064 940.299072L1374.841003 940.299072L1733.495178 1020.000000L2769.607239 1020.000000L2769.607239 940.299072L2769.607239 629.464111L2769.607239 318.629150L2410.953064 318.629150Z" style="fill: rgb(0.000000%,0.000000%,0.000000%);stroke: none;"></path>
</svg>
