<?xml version="1.0"?>
<!-- Created by MetaPost 2.00 on 2020.01.24:1627 -->
<svg version="1.1" xmlns="http://www.w3.org/2000/svg" xmlns:xlink="http://www.w3.org/1999/xlink" width="612.965088" height="797.009277" viewBox="0 0 612.965088 797.009277">
<!-- Original BoundingBox: 0.000000 -239.102783 612.965088 557.906494 -->
  <path d="M0.000000 796.102783L557.904053 796.102783L557.904053 -0.906494L0.000000 -0.906494Z" style="stroke:rgb(100.000000%,0.000000%,0.000000%); stroke-width: 0.000000;stroke-linejoin: round;stroke-miterlimit: 10.000000;fill: none;"></path>
  <path d="M571.993332 423.359329L543.814774 451.537888C589.081985 473.380539,585.085678 522.984665,558.901031 549.169312L587.079590 520.990753C570.234207 537.836121,544.205673 544.988785,516.202927 528.821442C304.086487 406.356308,165.839523 227.191956,246.959229 146.072250L218.780670 174.250809C229.897049 163.134430,245.132935 153.859238,264.862747 146.823456C316.062759 128.565186,371.405380 160.139557,376.443558 212.435104C378.980118 238.764297,369.673584 259.893188,352.832352 276.734406L381.010910 248.555847C349.815689 279.751068,292.768478 296.235046,237.250900 303.807938C180.195572 311.590576,126.980133 334.262695,95.025208 366.217621L66.846649 394.396179C39.970551 421.272278,28.133865 454.714905,41.701126 491.388351C57.720627 534.690414,106.211731 551.544739,153.281937 557.000000C210.697586 563.654251,269.806290 558.752823,320.653152 531.238815C339.084656 521.265244,355.637314 508.820877,370.003937 494.454254L398.182495 466.275696C440.385666 424.072525,463.724670 365.281479,460.412521 303.807938L432.233963 331.986496C435.546112 393.460037,412.207108 452.251083,370.003937 494.454254L398.182495 466.275696C383.815872 480.642319,367.263214 493.086685,348.831711 503.060257C297.984848 530.574265,238.876144 535.475693,181.460495 528.821442C134.390289 523.366180,85.899185 506.511856,69.879684 463.209793C56.312424 426.536362,68.149109 393.093719,95.025208 366.217621L66.846649 394.396179C98.801575 362.441254,152.017014 339.769135,209.072342 331.986496C264.589920 324.413605,321.637131 307.929626,352.832352 276.734406L381.010910 248.555847C397.852142 231.714630,407.158676 210.585739,404.622116 184.256546C399.583939 131.960999,344.241318 100.386627,293.041306 118.644897C273.311493 125.680679,258.075607 134.955872,246.959229 146.072250L218.780670 174.250809C137.660965 255.370514,275.907928 434.534866,488.024368 557.000000C516.027115 573.167343,542.055649 566.014679,558.901031 549.169312L587.079590 520.990753C613.264236 494.806107,617.260544 445.201981,571.993332 423.359329Z" style="fill: rgb(0.000000%,0.000000%,0.000000%);stroke: none;"></path>
  <path d="M404.622116 184.256546L376.443558 212.435104C376.443558 244.857986,363.071335 272.018250,341.470657 293.618927L369.649216 265.440369C337.867981 297.221603,288.274231 316.967789,237.250900 323.733170C184.580872 330.716888,142.013184 352.022751,116.838470 377.197464L88.659912 405.376022C59.829758 434.206177,53.810318 468.110291,81.551590 491.388351C148.060135 547.196564,239.639648 562.459885,320.653152 531.238815L348.831711 503.060257C267.818207 534.281326,176.238693 519.018005,109.730148 463.209793C81.988876 439.931732,88.008316 406.027618,116.838470 377.197464L88.659912 405.376022C113.834625 380.201309,156.402313 358.895447,209.072342 351.911728C260.095673 345.146347,309.689423 325.400162,341.470657 293.618927L369.649216 265.440369C391.249893 243.839691,404.622116 216.679428,404.622116 184.256546Z" style="fill: rgb(0.000000%,0.000000%,0.000000%);stroke: none;"></path>
  <path d="M376.443558 212.435104L404.622116 184.256546C389.135284 137.506897,341.423676 109.451569,293.041306 118.644897C274.130005 122.238312,257.158051 131.421753,244.049072 144.530716L215.870514 172.709274C205.008209 183.571579,196.798248 197.129181,192.335052 212.435104C174.792999 272.593201,216.174240 329.346939,264.862747 371.836960C302.505463 404.687393,344.289948 433.144547,376.443558 471.463120C436.230377 542.713120,514.370041 605.887253,565.845184 554.412109L594.023743 526.233551C595.059692 525.197586,596.084854 524.115189,597.098846 522.985489C626.456787 490.277435,613.345657 438.248581,571.993332 423.359329L543.814774 451.537888C585.167099 466.427139,598.278229 518.455994,568.920288 551.164047C567.906296 552.293747,566.881134 553.376144,565.845184 554.412094L594.023743 526.233536C542.548599 577.708694,464.408936 514.534561,404.622116 443.284561C372.468506 404.965988,330.684021 376.508835,293.041306 343.658401C244.352798 301.168381,202.971558 244.414642,220.513611 184.256546C224.976791 168.950623,233.186752 155.393021,244.049072 144.530716L215.870514 172.709274C228.979492 159.600311,245.951447 150.416870,264.862747 146.823456C313.245117 137.630127,360.956726 165.685455,376.443558 212.435104Z" style="fill: rgb(0.000000%,0.000000%,0.000000%);stroke: none;"></path>
</svg>
