<?xml version="1.0"?>
<!-- Created by MetaPost 2.00 on 2020.01.24:1627 -->
<svg version="1.1" xmlns="http://www.w3.org/2000/svg" xmlns:xlink="http://www.w3.org/1999/xlink" width="557.904053" height="797.009277" viewBox="0 0 557.904053 797.009277">
<!-- Original BoundingBox: 0.000000 -239.102783 557.904053 557.906494 -->
  <path d="M0.000000 796.102783L557.904053 796.102783L557.904053 -0.906494L0.000000 -0.906494Z" style="stroke:rgb(100.000000%,0.000000%,0.000000%); stroke-width: 0.000000;stroke-linejoin: round;stroke-miterlimit: 10.000000;fill: none;"></path>
  <path d="M404.338760 232.360336L432.517319 204.181778C432.517319 143.958923,361.886627 118.644897,293.041306 118.644897C246.695007 118.644897,199.539581 130.116989,173.668167 155.988403L145.489609 184.166962C132.930222 196.726349,125.386734 212.679184,125.386734 232.360336C125.386734 296.144836,194.126938 331.986496,264.862747 331.986496C349.745712 331.986496,432.233963 374.996475,432.233963 451.537888C432.233963 475.898361,422.813599 495.753510,407.172623 511.394485L435.351181 483.215927C404.179260 514.387848,348.299637 528.821442,293.041306 528.821442C210.056305 528.821442,125.670090 496.269409,125.670090 423.359329C125.670090 394.888168,137.083344 371.056488,155.787720 352.352112L127.609161 380.530670C159.189301 348.950516,211.553757 331.986496,264.862747 331.986496C309.286896 331.986496,352.923950 317.849808,379.240738 291.533020L407.419296 263.354462C423.006271 247.767487,432.517319 227.907745,432.517319 204.181778L432.517319 204.181778L432.517319 204.181778L404.338760 232.360336C404.338760 256.086304,394.827713 275.946045,379.240738 291.533020L407.419296 263.354462C381.102509 289.671249,337.465454 303.807938,293.041306 303.807938C239.732315 303.807938,187.367859 320.771957,155.787720 352.352112L127.609161 380.530670C108.904785 399.235046,97.491531 423.066727,97.491531 451.537888C97.491531 524.447968,181.877747 557.000000,264.862747 557.000000C320.121078 557.000000,376.000702 542.566406,407.172623 511.394485L435.351181 483.215927C450.992157 467.574951,460.412521 447.719803,460.412521 423.359329C460.412521 346.817917,377.924271 303.807938,293.041306 303.807938C222.305496 303.807938,153.565292 267.966278,153.565292 204.181778C153.565292 184.500626,161.108780 168.547791,173.668167 155.988403L145.489609 184.166962C171.361023 158.295547,218.516449 146.823456,264.862747 146.823456C333.708069 146.823456,404.338760 172.137482,404.338760 232.360336Z" style="fill: rgb(0.000000%,0.000000%,0.000000%);stroke: none;"></path>
</svg>
