<?xml version="1.0"?>
<!-- Created by MetaPost 2.00 on 2020.01.24:1627 -->
<svg version="1.1" xmlns="http://www.w3.org/2000/svg" xmlns:xlink="http://www.w3.org/1999/xlink" width="390.532837" height="797.009277" viewBox="0 0 390.532837 797.009277">
<!-- Original BoundingBox: 0.000000 -239.102783 390.532837 557.906494 -->
  <path d="M0.000000 796.102783L390.532837 796.102783L390.532837 -0.906494L0.000000 -0.906494Z" style="stroke:rgb(100.000000%,0.000000%,0.000000%); stroke-width: 0.000000;stroke-linejoin: round;stroke-miterlimit: 10.000000;fill: none;"></path>
  <path d="M181.460495 24.854691L153.281937 53.033249L209.072342 92.883713L237.250900 64.705154Z" style="fill: rgb(0.000000%,0.000000%,0.000000%);stroke: none;"></path>
</svg>
