<?xml version="1.0"?>
<!-- Created by MetaPost 2.00 on 2020.01.24:1627 -->
<svg version="1.1" xmlns="http://www.w3.org/2000/svg" xmlns:xlink="http://www.w3.org/1999/xlink" width="557.904053" height="797.009277" viewBox="0 0 557.904053 797.009277">
<!-- Original BoundingBox: 0.000000 -239.102783 557.904053 557.906494 -->
  <path d="M0.000000 796.102783L557.904053 796.102783L557.904053 -0.906494L0.000000 -0.906494Z" style="stroke:rgb(100.000000%,0.000000%,0.000000%); stroke-width: 0.000000;stroke-linejoin: round;stroke-miterlimit: 10.000000;fill: none;"></path>
  <path d="M97.491531 557.000000L125.670090 528.821442L125.670090 118.644897L97.491531 146.823456Z" style="fill: rgb(0.000000%,0.000000%,0.000000%);stroke: none;"></path>
  <path d="M376.726913 118.644897L348.548355 146.823456C357.115356 190.777237,342.177612 233.005295,313.372803 261.810104L341.551361 233.631546C318.608017 256.574890,286.866989 271.002121,251.198502 271.002121C236.415024 271.002121,225.542572 276.146957,217.143753 284.545776L188.965195 312.724335C160.057770 341.631744,160.453720 409.086823,131.546295 437.994232L159.724854 409.815674C151.326035 418.214493,140.453568 423.359329,125.670090 423.359329L97.491531 451.537888C112.275009 451.537888,123.147461 446.393051,131.546280 437.994232L159.724838 409.815674C188.632263 380.908264,188.236313 313.453186,217.143738 284.545776L188.965179 312.724335C197.363998 304.325516,208.236465 299.180679,223.019943 299.180679C258.688431 299.180679,290.429459 284.753448,313.372803 261.810104L341.551361 233.631546C370.356171 204.826736,385.293915 162.598679,376.726913 118.644897Z" style="fill: rgb(0.000000%,0.000000%,0.000000%);stroke: none;"></path>
  <path d="M251.198502 271.002121L223.019943 299.180679C440.897736 299.180679,485.955215 477.151031,425.743408 537.362839L453.921967 509.184280C441.662552 521.443695,425.039215 528.821442,404.622116 528.821442L376.443558 557.000000C396.860657 557.000000,413.483994 549.622253,425.743408 537.362839L453.921967 509.184280C514.133774 448.972473,469.076294 271.002121,251.198502 271.002121Z" style="fill: rgb(0.000000%,0.000000%,0.000000%);stroke: none;"></path>
</svg>
