<?xml version="1.0"?>
<!-- Created by MetaPost 2.00 on 2020.01.24:1627 -->
<svg version="1.1" xmlns="http://www.w3.org/2000/svg" xmlns:xlink="http://www.w3.org/1999/xlink" width="557.904053" height="797.009277" viewBox="0 0 557.904053 797.009277">
<!-- Original BoundingBox: 0.000000 -239.102783 557.904053 557.906494 -->
  <path d="M0.000000 796.102783L557.904053 796.102783L557.904053 -0.906494L0.000000 -0.906494Z" style="stroke:rgb(100.000000%,0.000000%,0.000000%); stroke-width: 0.000000;stroke-linejoin: round;stroke-miterlimit: 10.000000;fill: none;"></path>
  <path d="M125.670090 118.644897L97.491531 146.823456L264.862747 557.000000L293.041306 528.821442L460.412521 118.644897L432.233963 146.823456L264.862747 557.000000L293.041306 528.821442Z" style="fill: rgb(0.000000%,0.000000%,0.000000%);stroke: none;"></path>
</svg>
